{
  "connection_string": "mongodb://ds235181.mlab.com:35181/sensormanager2018",
  "db_name": "sensormanager2018",
  "username": "sensormanager2018",
  "password": "sensormanager2018",
  "useObjectId": true
}
